module gitlab.com/go-htmx/go-htmx

go 1.22.2

require (
	github.com/a-h/templ v0.2.747
	github.com/gorilla/mux v1.8.1
	github.com/stretchr/testify v1.9.0
	golang.org/x/exp v0.0.0-20250106191152-7588d65b2ba8
	golang.org/x/text v0.16.0
)

require (
	github.com/davecgh/go-spew v1.1.1 // indirect
	github.com/pmezard/go-difflib v1.0.0 // indirect
	gopkg.in/yaml.v3 v3.0.1 // indirect
)
